{
  "momodo": {
    "DELHI": "https://www.momondo.in/s/horizon/exploreapi/elasticbox?airport=DEL&v=1&stopsFilterActive=false&duration=&budget=50000&topRightLat=47.116221011355655&topRightLon=92.919969272461&bottomLeftLat=6.076795405181524&bottomLeftLon=61.279344272461&zoomLevel=4",
    "KOLKATA": "https://www.momondo.in/s/horizon/exploreapi/elasticbox?airport=CCU&v=1&stopsFilterActive=false&duration=&budget=50000&topRightLat=47.116221011355655&topRightLon=92.919969272461&bottomLeftLat=6.076795405181524&bottomLeftLon=61.279344272461&zoomLevel=4",
    "KOCHI": "https://www.momondo.in/s/horizon/exploreapi/elasticbox?airport=COK&v=1&stopsFilterActive=false&duration=&budget=50000&topRightLat=47.116221011355655&topRightLon=92.919969272461&bottomLeftLat=6.076795405181524&bottomLeftLon=61.279344272461&zoomLevel=4",
    "MUMBAI": "https://www.momondo.in/s/horizon/exploreapi/elasticbox?airport=BOM&v=1&stopsFilterActive=false&duration=&budget=50000&topRightLat=47.116221011355655&topRightLon=92.919969272461&bottomLeftLat=6.076795405181524&bottomLeftLon=61.279344272461&zoomLevel=4",
    "HYDERABAD": "https://www.momondo.in/s/horizon/exploreapi/elasticbox?airport=HYD&v=1&stopsFilterActive=false&duration=&budget=50000&topRightLat=47.116221011355655&topRightLon=92.919969272461&bottomLeftLat=6.076795405181524&bottomLeftLon=61.279344272461&zoomLevel=4",
    "VIZAG": "https://www.momondo.in/s/horizon/exploreapi/elasticbox?airport=VTZ&v=1&stopsFilterActive=false&duration=&budget=50000&topRightLat=47.116221011355655&topRightLon=92.919969272461&bottomLeftLat=6.076795405181524&bottomLeftLon=61.279344272461&zoomLevel=4",
    "CHENNAI": "https://www.momondo.in/s/horizon/exploreapi/elasticbox?airport=MAA&v=1&stopsFilterActive=false&duration=&budget=50000&topRightLat=47.116221011355655&topRightLon=92.919969272461&bottomLeftLat=6.076795405181524&bottomLeftLon=61.279344272461&zoomLevel=4",
    "GOI": "https://www.momondo.in/s/horizon/exploreapi/elasticbox?airport=MAA&v=1&stopsFilterActive=false&duration=&budget=50000&topRightLat=47.116221011355655&topRightLon=92.919969272461&bottomLeftLat=6.076795405181524&bottomLeftLon=61.279344272461&zoomLevel=4"
  }
}
